date,temperature,pression,angle,luminosite
0.1,25.4,1092,328,36.9
0.2,25.4,1092,328,36.9
0.3,25.4,1092,328,36.6
0.5,25.4,1092,328,36.3
0.6,25.4,1092,328,36.8
0.7,25.4,1092,328,36.8
0.8,25.4,1092,328,36.8
0.9,25.4,1092,328,36.5
1.1,25.4,1092,328,36.3
1.2,25.4,1092,328,36.0
1.3,25.4,1092,328,36.3
1.4,25.4,1092,328,36.5
1.5,25.4,1092,328,36.0
1.7,25.4,1092,328,36.0
1.8,25.4,1092,328,35.9
1.9,25.4,1092,328,35.6
2.1,25.4,1092,328,35.8
2.2,25.4,1092,328,35.8
2.3,25.4,1092,328,35.6
2.5,25.4,1092,328,35.3
2.6,25.4,1092,328,35.5
2.7,25.4,1092,328,35.5
2.9,25.4,1092,328,33.7
3.0,25.4,1092,328,35.3
3.1,25.4,1092,328,35.3
3.2,25.4,1092,328,35.2
3.4,25.4,1092,328,35.2
3.5,25.4,1092,328,35.0
3.6,25.4,1092,328,34.9
3.7,25.4,1092,328,34.9
3.8,25.4,1092,328,34.9
4.0,25.5,1092,328,34.7
4.1,25.5,1092,328,34.7
4.2,25.4,1092,328,34.6
4.4,25.4,1092,328,34.6
4.5,25.4,1092,328,34.6
4.6,25.4,1092,328,34.6
4.7,25.4,1092,328,34.5
4.9,25.4,1092,328,34.5
5.0,25.5,1092,328,34.2
5.1,25.4,1092,328,34.7
5.2,25.4,1092,328,35.8
5.4,25.4,1092,328,33.0
5.5,25.4,1092,328,30.7
5.6,25.4,1092,328,30.7
5.7,25.4,1092,328,29.4
5.8,25.4,1092,328,33.0
6.0,25.4,1092,328,33.5
6.1,25.4,1092,328,34.5
6.2,25.4,1092,328,34.7
6.3,25.4,1092,328,34.9
6.4,25.4,1092,331,34.9
6.6,25.4,1092,326,34.7
6.7,25.4,1092,295,34.6
6.8,25.4,1092,266,34.5
6.9,25.4,1092,266,34.7
7.1,25.4,1092,266,34.6
7.2,25.4,1092,267,34.5
7.3,25.4,1092,272,34.6
7.4,25.4,1092,285,33.7
7.5,25.5,1092,289,31.4
7.6,25.5,1092,288,28.0
7.8,25.4,1092,288,26.5
7.9,25.4,1092,288,28.0
8.0,25.4,1092,288,29.1
8.1,25.4,1092,288,29.3
8.3,25.4,1092,288,30.7
8.4,25.5,1092,288,32.0
8.5,25.5,1092,289,30.9
8.6,25.5,1092,288,29.6
8.7,25.5,1092,288,31.2
8.8,25.4,1092,288,30.7
9.0,25.4,1092,288,30.1
9.1,25.5,1092,288,29.9
9.2,25.5,1092,288,30.0
9.4,25.5,1092,288,30.3
9.5,25.5,1092,288,31.0
9.6,25.5,1092,288,31.3
9.7,25.5,1092,288,31.4
9.9,25.5,1092,288,31.6
10.0,25.5,1092,288,31.7
10.1,25.5,1092,288,31.7
10.2,25.5,1092,288,31.7
10.3,25.5,1092,288,31.6
10.5,25.5,1092,288,31.6
10.6,25.5,1092,288,31.4
10.7,25.5,1092,288,31.2
10.8,25.5,1092,288,31.3
11.0,25.5,1092,288,31.3
11.1,25.5,1092,288,31.3
11.2,25.5,1092,288,31.3
11.3,25.5,1092,288,31.2
11.5,25.5,1092,288,31.2
11.6,25.5,1092,289,31.2
11.7,25.5,1092,288,31.2
11.8,25.5,1092,288,31.0
11.9,25.5,1092,288,31.2
12.1,25.5,1092,288,31.0
12.2,25.5,1092,288,30.6
12.3,25.5,1092,288,29.6
12.4,25.5,1092,288,29.1
12.5,25.5,1092,289,28.7
12.7,25.5,1092,288,28.7
12.8,25.5,1092,288,29.0
12.9,25.5,1092,288,28.9
13.0,25.5,1092,288,29.3
13.2,25.5,1092,289,31.4
13.3,25.5,1092,289,27.7
13.4,25.5,1092,289,26.3
13.5,25.5,1092,289,28.9
13.7,25.5,1092,289,30.1
13.8,25.5,1092,289,29.9
13.9,25.5,1092,289,29.7
14.0,25.5,1092,289,29.4
14.2,25.5,1092,289,29.0
14.3,25.5,1092,289,29.3
14.4,25.5,1092,289,29.7
14.6,25.5,1092,289,30.0
14.7,25.5,1092,289,30.0
14.8,25.5,1092,289,30.3
14.9,25.5,1092,289,30.4
15.0,25.5,1092,289,30.6
15.2,25.5,1092,289,30.6
15.3,25.5,1092,289,30.7
15.4,25.5,1092,289,31.0
15.5,25.5,1092,289,30.9
15.6,25.5,1092,289,31.0
15.8,25.5,1092,289,31.2
15.9,25.5,1092,289,30.9
16.0,25.5,1092,289,30.3
16.1,25.5,1092,289,36.2
16.2,25.5,1092,289,37.6
16.4,25.5,1092,289,38.8
16.5,25.5,1092,289,38.8
16.6,25.5,1092,289,38.5
16.7,25.5,1092,289,38.1
16.9,25.5,1092,289,37.8
17.0,25.5,1092,289,38.1
17.1,25.5,1092,289,37.9
17.2,25.5,1092,289,37.8
17.3,25.5,1092,289,37.8
17.5,25.5,1092,288,37.9
17.6,25.5,1092,289,37.9
17.7,25.5,1092,288,37.9
17.8,25.5,1092,289,37.9
18.0,25.5,1092,289,37.9
18.1,25.5,1092,289,38.2
18.2,25.5,1092,289,38.1
18.3,25.5,1092,289,38.1
18.4,25.5,1092,289,38.1
18.6,25.5,1092,289,38.1
18.7,25.5,1092,289,38.3
18.8,25.5,1092,289,38.1
18.9,25.5,1092,289,38.1
19.0,25.5,1092,289,38.1
19.2,25.5,1092,289,38.2
19.3,25.5,1092,289,38.5
19.4,25.5,1092,288,38.2
19.5,25.5,1092,289,38.2
19.6,25.5,1092,289,38.2
19.8,25.5,1092,289,38.2
19.9,25.5,1092,289,38.3
20.0,25.5,1092,289,38.6
